<?xml version="1.0" encoding="UTF-8" standalone="no"?>
<!-- Generator: Adobe Illustrator 19.0.0, SVG Export Plug-In . SVG Version: 6.00 Build 0)  -->

<svg
   xmlns:dc="http://purl.org/dc/elements/1.1/"
   xmlns:cc="http://creativecommons.org/ns#"
   xmlns:rdf="http://www.w3.org/1999/02/22-rdf-syntax-ns#"
   xmlns:svg="http://www.w3.org/2000/svg"
   xmlns="http://www.w3.org/2000/svg"
   xmlns:sodipodi="http://sodipodi.sourceforge.net/DTD/sodipodi-0.dtd"
   xmlns:inkscape="http://www.inkscape.org/namespaces/inkscape"
   version="1.1"
   id="Layer_1"
   x="0px"
   y="0px"
   viewBox="0 0 430.29229 107.77147"
   xml:space="preserve"
   width="113.84817mm"
   height="28.514534mm"
   sodipodi:docname="logo2.svg"
   inkscape:version="0.92.4 5da689c313, 2019-01-14"><metadata
   id="metadata2266"><rdf:RDF><cc:Work
       rdf:about=""><dc:format>image/svg+xml</dc:format><dc:type
         rdf:resource="http://purl.org/dc/dcmitype/StillImage" /><dc:title></dc:title></cc:Work></rdf:RDF></metadata><defs
   id="defs2264" /><sodipodi:namedview
   pagecolor="#ffffff"
   bordercolor="#666666"
   borderopacity="1"
   objecttolerance="10"
   gridtolerance="10"
   guidetolerance="10"
   inkscape:pageopacity="0"
   inkscape:pageshadow="2"
   inkscape:window-width="855"
   inkscape:window-height="438"
   id="namedview2262"
   showgrid="false"
   units="mm"
   inkscape:zoom="2.2663893"
   inkscape:cx="376.00854"
   inkscape:cy="57.085212"
   inkscape:window-x="3620"
   inkscape:window-y="545"
   inkscape:window-maximized="1"
   inkscape:current-layer="Layer_1"
   fit-margin-top="3"
   fit-margin-left="3"
   fit-margin-bottom="3"
   fit-margin-right="3" />
<g
   id="g2229"
   style="fill:#ececec"
   transform="matrix(0.24712023,0,0,0.22159916,11.338583,-2.8437636)">
	<g
   id="g2227"
   style="fill:#1a1a1a"
   transform="scale(0.95639838,1)">
		<path
   d="M 501.333,245.333 H 245.63 l 58.849,-24.385 c 5.438,-2.25 8.021,-8.5 5.771,-13.938 -2.271,-5.458 -8.542,-8.021 -13.938,-5.771 l -58.857,24.389 90.315,-90.306 c 4.167,-4.167 4.167,-10.917 0,-15.083 -4.167,-4.167 -10.917,-4.167 -15.083,0 l -90.306,90.296 24.368,-58.858 c 2.25,-5.448 -0.333,-11.688 -5.771,-13.938 -5.438,-2.24 -11.667,0.344 -13.938,5.771 l -24.375,58.875 V 74.667 C 202.667,68.771 197.896,64 192,64 c -5.896,0 -10.667,4.771 -10.667,10.667 v 127.719 l -24.375,-58.875 c -2.25,-5.427 -8.438,-8 -13.938,-5.771 -5.438,2.25 -8.021,8.49 -5.771,13.938 l 24.368,58.858 -90.304,-90.296 c -4.167,-4.167 -10.917,-4.167 -15.083,0 -4.167,4.167 -4.167,10.917 0,15.083 l 90.315,90.306 -58.857,-24.389 c -5.417,-2.25 -11.667,0.313 -13.938,5.771 -2.25,5.438 0.333,11.688 5.771,13.938 l 58.849,24.385 H 10.667 C 4.771,245.333 0,250.104 0,256 c 0,5.896 4.771,10.667 10.667,10.667 H 138.37 l -58.849,24.385 c -5.438,2.25 -8.021,8.5 -5.771,13.938 1.708,4.104 5.667,6.583 9.854,6.583 1.375,0 2.75,-0.26 4.083,-0.813 l 58.857,-24.389 -90.315,90.306 c -4.167,4.167 -4.167,10.917 0,15.083 2.083,2.083 4.813,3.125 7.542,3.125 2.729,0 5.458,-1.042 7.542,-3.125 l 90.306,-90.296 -24.368,58.858 c -2.25,5.448 0.333,11.688 5.771,13.938 1.333,0.552 2.729,0.813 4.083,0.813 4.188,0 8.146,-2.479 9.854,-6.583 l 24.375,-58.875 v 127.719 c 0,5.896 4.771,10.667 10.667,10.667 5.896,0 10.667,-4.771 10.667,-10.667 V 309.615 l 24.375,58.875 c 1.708,4.104 5.667,6.583 9.854,6.583 1.354,0 2.75,-0.26 4.083,-0.813 5.438,-2.25 8.021,-8.49 5.771,-13.938 l -24.368,-58.858 90.306,90.296 c 2.083,2.083 4.813,3.125 7.542,3.125 2.729,0 5.458,-1.042 7.542,-3.125 4.167,-4.167 4.167,-10.917 0,-15.083 l -90.315,-90.306 58.857,24.389 c 1.333,0.552 2.708,0.813 4.083,0.813 4.188,0 8.146,-2.479 9.854,-6.583 2.25,-5.438 -0.333,-11.688 -5.771,-13.938 l -58.849,-24.385 h 255.703 c 5.896,0 10.667,-4.771 10.667,-10.667 0,-5.896 -4.773,-10.667 -10.669,-10.667 z m -309.333,32 c 7.798,0 14.333,-4.409 18.055,-10.667 h 11.98 C 217.617,279.056 205.888,288 192,288 c -17.646,0 -32,-14.354 -32,-32 0,-17.646 14.354,-32 32,-32 13.888,0 25.617,8.944 30.035,21.333 h -11.98 c -3.721,-6.258 -10.257,-10.667 -18.055,-10.667 -11.771,0 -21.333,9.573 -21.333,21.333 0,11.76 9.562,21.334 21.333,21.334 z"
   id="path2225"
   style="fill:#1a1a1a"
   inkscape:connector-curvature="0" />
	</g>
<text
   xml:space="preserve"
   style="font-style:normal;font-variant:normal;font-weight:normal;font-stretch:normal;font-size:40px;line-height:1.25;font-family:'Riky Vampdator Normal';-inkscape-font-specification:'Riky Vampdator Normal, ';letter-spacing:0px;word-spacing:0px;fill:#000000;fill-opacity:1;stroke:none"
   x="79.186455"
   y="258.16943"
   id="text2813"><tspan
     sodipodi:role="line"
     id="tspan2811"
     x="79.186455"
     y="293.56006" /></text>


</g>
<g
   id="g2231"
   transform="translate(-293.96498,263.57514)">
</g>
<g
   id="g2233"
   transform="translate(-293.96498,263.57514)">
</g>
<g
   id="g2235"
   transform="translate(-293.96498,263.57514)">
</g>
<g
   id="g2237"
   transform="translate(-293.96498,263.57514)">
</g>
<g
   id="g2239"
   transform="translate(-293.96498,263.57514)">
</g>
<g
   id="g2241"
   transform="translate(-293.96498,263.57514)">
</g>
<g
   id="g2243"
   transform="translate(-293.96498,263.57514)">
</g>
<g
   id="g2245"
   transform="translate(-293.96498,263.57514)">
</g>
<g
   id="g2247"
   transform="translate(-293.96498,263.57514)">
</g>
<g
   id="g2249"
   transform="translate(-293.96498,263.57514)">
</g>
<g
   id="g2251"
   transform="translate(-293.96498,263.57514)">
</g>
<g
   id="g2253"
   transform="translate(-293.96498,263.57514)">
</g>
<g
   id="g2255"
   transform="translate(-293.96498,263.57514)">
</g>
<g
   id="g2257"
   transform="translate(-293.96498,263.57514)">
</g>
<g
   id="g2259"
   transform="translate(-293.96498,263.57514)">
</g>
<text
   xml:space="preserve"
   style="font-style:normal;font-variant:normal;font-weight:normal;font-stretch:normal;font-size:40px;line-height:1.25;font-family:'Riky Vampdator Normal';-inkscape-font-specification:'Riky Vampdator Normal, ';letter-spacing:0px;word-spacing:0px;fill:#000000;fill-opacity:1;stroke:none"
   x="135.30786"
   y="48.567787"
   id="text2831"><tspan
     sodipodi:role="line"
     id="tspan2829"
     x="135.30786"
     y="48.567787"
     style="font-style:normal;font-variant:normal;font-weight:600;font-stretch:normal;font-size:42.66666794px;font-family:FreeSans;-inkscape-font-specification:'FreeSans, Semi-Bold';font-variant-ligatures:normal;font-variant-caps:normal;font-variant-numeric:normal;font-feature-settings:normal;text-align:start;writing-mode:lr-tb;text-anchor:start">Team Chaos</tspan></text>


<text
   xml:space="preserve"
   style="font-style:normal;font-variant:normal;font-weight:normal;font-stretch:normal;font-size:40px;line-height:1.25;font-family:'Riky Vampdator Normal';-inkscape-font-specification:'Riky Vampdator Normal, ';letter-spacing:0px;word-spacing:0px;fill:#000000;fill-opacity:1;stroke:none"
   x="172.24916"
   y="82.511909"
   id="text854"><tspan
     sodipodi:role="line"
     id="tspan852"
     x="172.24916"
     y="82.511909"
     style="font-style:italic;font-variant:normal;font-weight:bold;font-stretch:normal;font-size:42.66666794px;font-family:sans-serif;-inkscape-font-specification:'sans-serif, Bold Italic';font-variant-ligatures:normal;font-variant-caps:normal;font-variant-numeric:normal;font-feature-settings:normal;text-align:start;writing-mode:lr-tb;text-anchor:start">Lasertag</tspan></text>

</svg>